^C:\USERS\MERESLANN\GAMES PROGRAMMING CODE\GAMES PROGRAMMING\TASK 27\SOURCE.CPP
C:\USERS\MERESLANN\GAMES PROGRAMMING CODE\GAMES PROGRAMMING\TASK 27\DEBUG\VC142.PDB
C:\USERS\MERESLANN\GAMES PROGRAMMING CODE\GAMES PROGRAMMING\TASK 27\DEBUG\VC142.IDB
C:\USERS\MERESLANN\GAMES PROGRAMMING CODE\GAMES PROGRAMMING\TASK 27\DEBUG\SOURCE.OBJ
